{"count":35,"page":1,"page_size":10,"total_pages":4,"incidents":[{"id":"7fd61752","title":"Compute1 Cloud Maintenance","date":"2022-08-08T08:00:00.000Z","modified":"2022-08-08T08:40:00.000Z","scheduled":"2022-08-08T08:00:00.000Z","duration":30,"severity":"under-maintenance","affectedsystems":["cloud"],"resolved":false,"content":"<p>In order to further improve our product quality and guarantee the stability of our services, we will perform maintenance on our cloud servers.</p>\n<p>The maintenance work will take place on Monday, 08th of August 2022 at 10:00 (CEST) and will end at approximately 10:30 (CEST), although we will try to\nkeep the interruption as minimal as possible.</p>\n<p>During this time, cloud servers may be temporarily unavailable and will be shutdown via APCI (Software Shutdown).</p>\n<p>Thank you for your understanding.</p>\n<!--- language code: en -->\n<div class=\"update-block\">\n          <div class=\"update-block-date\">2022-08-08T08:00:00.000Z</div>\n          <div class=\"update-block-content\">\n            <div class=\"update-block-title\">Update</div>\n            <div class=\"update-block-body\">\n<p>We are beginning with the maintenance now. Instances might be unavailable during this time.</p>\n</div></div></div>\n<div class=\"update-block\">\n          <div class=\"update-block-date\">2022-08-08T08:40:00.000Z</div>\n          <div class=\"update-block-content\">\n            <div class=\"update-block-title\">Update</div>\n            <div class=\"update-block-body\">\n<p>We are currently having issues with the control plane and are unable to start the VMs.\nThe issue is currently being investigated, however we are unable to give an exact timeframe when the services will recover.\nThis page will be updated as soon as we have more information.</p>\n</div></div></div>\n<div class=\"update-block\">\n          <div class=\"update-block-date\">2022-08-08T12:05:00.000Z</div>\n          <div class=\"update-block-content\">\n            <div class=\"update-block-title\">Restoring Services</div>\n            <div class=\"update-block-body\">\n<p>Some Control plane services have been restored to allow VMs to be started. Instances should now be reachable and start/stop via the web panel should be possible.\nWe are still working on restoring other services, such as volume/image management.\nThis page will be updated as soon as more information becomes available.</p>\n</div></div></div>\n"},{"id":"f6815e50","title":"Compute1 Cloud Maintenance","date":"2022-07-15T08:00:00.000Z","modified":"2022-07-15T08:45:00.000Z","scheduled":"2022-07-15T08:00:00.000Z","duration":30,"severity":"under-maintenance","affectedsystems":["cloud"],"resolved":true,"content":"<p>In order to further improve our product quality and guarantee the stability of our services, we will perform maintenance on our cloud servers.</p>\n<p>The maintenance work will take place on Friday, 15th of July 2022 at 10:00 (CEST) and will end at approximately 10:30 (CEST), although we will try to\nkeep the interruption as minimal as possible.</p>\n<p>During this time, cloud servers may be temporarily unavailable and will be shutdown via APCI (Software Shutdown).</p>\n<p>Thank you for your understanding.</p>\n<!--- language code: en -->\n<div class=\"update-block\">\n          <div class=\"update-block-date\">2022-07-15T08:00:00.000Z</div>\n          <div class=\"update-block-content\">\n            <div class=\"update-block-title\">Update</div>\n            <div class=\"update-block-body\">\n<p>We are beginning with the maintenance now. Instances might be unavailable during this time.</p>\n</div></div></div>\n<div class=\"update-block\">\n          <div class=\"update-block-date\">2022-07-15T08:35:00.000Z</div>\n          <div class=\"update-block-content\">\n            <div class=\"update-block-title\">Update</div>\n            <div class=\"update-block-body\">\n<p>Instances are currently booting and we are monitoring the process.</p>\n</div></div></div>\n<div class=\"update-block\">\n          <div class=\"update-block-date\">2022-07-15T08:45:00.000Z</div>\n          <div class=\"update-block-content\">\n            <div class=\"update-block-title\">Completed</div>\n            <div class=\"update-block-body\">\n<p>All instances are back online. Maintenance is now complete.</p>\n</div></div></div>\n"},{"id":"638b5480","title":"power failure at Düsseldorf site","description":"We currently have a power outage at the Düsseldorf site \r\n\r\nWe are already working on a solution\r\n","date":"2022-06-22T14:19:00.000Z","modified":"2022-06-22T17:00:00.000Z","scheduled":null,"severity":"partial-outage","affectedsystems":["cloud"],"resolved":true,"content":"<p>Currently, the entire city power network in Düsseldorf is disrupted.\nThe USV systems of the data centers have taken over the power supply.</p>\n<div class=\"update-block\">\n          <div class=\"update-block-date\">2022-06-22T15:12:00.000Z</div>\n          <div class=\"update-block-content\">\n            <div class=\"update-block-title\">Update</div>\n            <div class=\"update-block-body\">\n<p>Due to the power outage, some air conditioners have failed, causing server heat issues and shutdowns.\nWe are currently in direct contact with the datacenter to solve the problem as quickly as possible.</p>\n</div></div></div>\n<div class=\"update-block\">\n          <div class=\"update-block-date\">2022-06-22T16:35:00.000Z</div>\n          <div class=\"update-block-content\">\n            <div class=\"update-block-title\">Update</div>\n            <div class=\"update-block-body\">\n<p>The air conditioning units have now been brought back up and the temperature in the cold aisle has returned to normal.\nWe are now starting to ramp up the systems that were shut down due to the high temperature.</p>\n</div></div></div>\n<div class=\"update-block\">\n          <div class=\"update-block-date\">2022-06-22T16:50:00.000Z</div>\n          <div class=\"update-block-content\">\n            <div class=\"update-block-title\">Update</div>\n            <div class=\"update-block-body\">\n<p>All systems are back up and all services are stabilizing again.</p>\n</div></div></div>\n<div class=\"update-block\">\n          <div class=\"update-block-date\">2022-06-22T17:00:00.000Z</div>\n          <div class=\"update-block-content\">\n            <div class=\"update-block-title\">Resolved</div>\n            <div class=\"update-block-body\">\n<p>The problem has been resolved. All services are up and running in normal operation mode.</p>\n<p>We apologies to our customers impacted by the consequences of the power failure.</p>\n</div></div></div>\n"},{"id":"dfd908ac","title":"network connectivity issues","description":"Due to a well-distributed DoS attack towards multiple prefixes we currently experience network stability issues for DDoS protected traffic currently routed via our external DDoS mitigation service provider. We are already working on a solution. \r\n\r\nWe are already working on a solution\r\n","date":"2022-06-09T20:10:00.000Z","modified":"2022-06-09T21:52:00.000Z","scheduled":null,"severity":"partial-outage","affectedsystems":["network"],"resolved":true,"content":"<p>Due to a well-distributed DoS attack towards multiple prefixes we currently experience network stability issues for DDoS protected traffic currently routed via our external DDoS mitigation service provider.\nWe are already working on a solution.</p>\n<div class=\"update-block\">\n          <div class=\"update-block-date\">2022-06-09T20:15:00.000Z</div>\n          <div class=\"update-block-content\">\n            <div class=\"update-block-title\">Update</div>\n            <div class=\"update-block-body\">\n<p>The permanent DDoS protection / filter rules of our external DDoS mitigation service provider has been established for a wide amount of prefixes in order to establish regular network operation again. But we still do experience some issues for some prefixes. We are currently in direct contact with the external DDoS mitigation service provider to solve the problem as quickly as possible.</p>\n</div></div></div>\n<div class=\"update-block\">\n          <div class=\"update-block-date\">2022-06-09T21:52:00.000Z</div>\n          <div class=\"update-block-content\">\n            <div class=\"update-block-title\">Resolved</div>\n            <div class=\"update-block-body\">\n<p>The problem has been resolved. All services are up and running in normal operation mode. We are still in direct contact with our external DDoS mitigation service provide in order to improve the quality of the service for the future.</p>\n<p>We apologies to our customers impacted by the consequences of the DDoS attack.</p>\n</div></div></div>\n"},{"id":"080e630e","title":"network connectivity issues","description":"Due to a technical problem, there are currently limitations in the network connection.\r\n\r\nWe are already working on a solution\r\n","date":"2022-05-13T05:00:00.000Z","modified":"2022-05-13T06:30:00.000Z","scheduled":null,"severity":"degraded-performance","affectedsystems":["network"],"resolved":true,"content":"<p>Due to a technical problem, there are currently limitations in the network connection.</p>\n<p>We are already working on a solution</p>\n<div class=\"update-block\">\n          <div class=\"update-block-date\">2022-05-13T05:05:00.000Z</div>\n          <div class=\"update-block-content\">\n            <div class=\"update-block-title\">Update</div>\n            <div class=\"update-block-body\">\n<p>The technical error has been fixed and the network is stabilizing again.</p>\n</div></div></div>\n<div class=\"update-block\">\n          <div class=\"update-block-date\">2022-05-13T06:30:00.000Z</div>\n          <div class=\"update-block-content\">\n            <div class=\"update-block-title\">Resolved</div>\n            <div class=\"update-block-body\">\n<p>Our technicians were able to resolve the technical error and restore proper operation of the network.\nWe apologize for the inconvenience caused.</p>\n</div></div></div>\n"},{"id":"0aa8f674","title":"cloud vps maintenance","date":"2022-04-13T06:46:00.000Z","modified":"2022-04-13T13:21:00.000Z","scheduled":"2022-04-13T11:00:00.000Z","duration":15,"severity":"under-maintenance","affectedsystems":["cloud"],"resolved":true,"content":"<p>In order to further improve our product quality and guarantee the stability of our services, we regularly perform maintenance work on our systems.</p>\n<p>The maintenance work will take place on Wednesday, 13.04.2022 at 13:00 (CEST).</p>\n<p>During this time, all cloud servers will be temporarily unavailable. We will shutdown any cloud server's via APCI (Software Shutdown).</p>\n<p>Thank you for your understanding\n</br></p>\n<!--- language code: en -->\n<div class=\"update-block\">\n          <div class=\"update-block-date\">2022-04-13T06:46:00.000Z</div>\n          <div class=\"update-block-content\">\n            <div class=\"update-block-title\">Update</div>\n            <div class=\"update-block-body\">\n<p>Unfortunately, contradictions have arisen in the specification of the time zone.\nThe maintenance work will take place today (13.04.2022) at 13 o'clock CEST.</p>\n</div></div></div>\n<div class=\"update-block\">\n          <div class=\"update-block-date\">2022-04-13T11:17:00.000Z</div>\n          <div class=\"update-block-content\">\n            <div class=\"update-block-title\">Update</div>\n            <div class=\"update-block-body\">\n<p>The maintenance might take a bit longer than expected. We are beginning now with shutting down the Cloud Servers.</p>\n</div></div></div>\n<div class=\"update-block\">\n          <div class=\"update-block-date\">2022-04-13T13:21:00.000Z</div>\n          <div class=\"update-block-content\">\n            <div class=\"update-block-title\">Resolved</div>\n            <div class=\"update-block-body\">\n<p>The maintenance has been completed. Unfortunately due to hardware defects it took longer than expected and we had to replace some network components.</p>\n<p>We apologise for the inconvenience.</p>\n</div></div></div>\n"},{"id":"54571a2d","title":"network connectivity issues","description":"Due to a hardware problem, there are currently limitations in the network connection.\r\n\r\nWe are already working on a solution","date":"2022-03-13T14:11:43.000Z","modified":"2022-03-13T17:09:03.000Z","scheduled":null,"severity":"degraded-performance","affectedsystems":["network"],"resolved":true,"content":"<p>Due to a hardware problem, there are currently limitations in the network connection.</p>\n<p>We are already working on a solution</p>\n<div class=\"update-block\">\n          <div class=\"update-block-date\">2022-03-13T16:42:19.000Z</div>\n          <div class=\"update-block-content\">\n            <div class=\"update-block-title\">Update</div>\n            <div class=\"update-block-body\">\n<p>The hardware error has been fixed and the network is stabilizing again.</p>\n</div></div></div>\n<div class=\"update-block\">\n          <div class=\"update-block-date\">2022-03-13T17:08:03.000Z</div>\n          <div class=\"update-block-content\">\n            <div class=\"update-block-title\">Resolved</div>\n            <div class=\"update-block-body\">\n<p>Our on-site technicians were able to repair the faulty hardware and restore proper operation from the network.\nWe apologize for the inconvenience caused.</p>\n</div></div></div>\n"},{"id":"4451308b","title":"compute27 maintenance","date":"2022-03-11T08:00:00.000Z","modified":"2022-03-11T18:25:00.000Z","scheduled":"2022-03-11T08:00:00.000Z","duration":340,"severity":"under-maintenance","affectedsystems":["cloud"],"resolved":true,"content":"<p>In order to further improve our product quality and guarantee the stability of our services, we regularly perform maintenance work on our systems.</p>\n<p>The maintenance work will take place on Friday, 11.03.2022 at 09:00 (CET).</p>\n<p>During this time, cloud servers on compute27 will be temporarily unavailable. Cloud Servers that are already off will be migrated first. Afterwards we will shutdown any cloud server's that are still running via APCI (Software Shutdown).</p>\n<p>Thank you for your understanding\n</br>\n</br></p>\n<details>\n  <summary>Affected Instances</summary>\n  e022c3ed-6e78-42cc-8d24-7b3fae7b3653\n<p>dc4b027d-ea7d-4dff-926a-e0fa542173ef</p>\n<p>f18746ff-265d-4a9c-8c25-b4bae1742a2f</p>\n<p>bd7c9d57-6962-4f94-b03d-d0a592494121</p>\n<p>a0d15f71-53b1-43cf-a8f5-2a79693b55da</p>\n<p>cc4632ab-5f85-463d-b020-1cf257f6b727</p>\n<p>c04d2371-0276-47b0-b81b-a595e05dc6b4</p>\n<p>eb189e8d-e44c-4563-b485-8b2df6b99649</p>\n<p>cd5984c3-aec6-4e33-bf8e-58fcce7f4145</p>\n<p>c9d17b49-bea8-47ff-9995-83b583c0ffdb</p>\n<p>3079c5ac-d874-455c-81d4-1f57c1653b05</p>\n<p>cca80f05-db66-43a1-80e5-74f5d7a33790</p>\n<p>b3f2c548-decf-4d78-9484-82abc9c3795a</p>\n<p>f316bafd-473e-42c7-b490-c15ff443d615</p>\n<p>4d103921-1642-46a7-a2f6-06b65a923309</p>\n<p>dbbb2883-a954-46a4-a26b-7c89e5202f60</p>\n<p>de580f6e-5b8b-489c-9d05-bc2a0660cf57</p>\n<p>25e3028b-0287-4cc4-8e94-eabb279d3cc0</p>\n<p>c7ca35f4-1c1f-4ed7-ad61-749c7439e00b</p>\n<p>7330f1e9-b0f9-45da-ba40-d9a4c4c80933</p>\n<p>4097bc8e-4f38-4a51-b380-37c4225a961c</p>\n<p>4cf31e36-9be1-41b7-b17e-d4da1e793534</p>\n<p>c5a7287f-9202-43a0-90ee-efcdc20b8d66</p>\n<p>c40a3614-0049-4e39-b00a-60da822dca5b</p>\n<p>10394eeb-7e46-4677-9526-a46c02331842</p>\n<p>95906e42-a77c-48d4-8990-06823d8a54da</p>\n<p>0c1aa7c0-398d-4384-b02d-ad1653fb2a34</p>\n<p>d13834f7-6b4c-48ec-b213-2c20ff9e26b2</p>\n<p>7a4c39a0-3a86-4f21-9fca-b4aef7836644</p>\n<p>7892905c-4282-42ee-b204-65b44d92b49c</p>\n<p>80e25f0e-1d3e-4224-a99e-b4a607dbdce9</p>\n<p>fa75464d-c696-4a21-9517-789f9b479e1d</p>\n<p>c45c8454-32ca-4e26-a380-45101028f0ab</p>\n<p>df7ab64b-331c-47fb-998f-7c635da07150</p>\n<p>975fabb5-cf22-4729-9b77-99420eb04675</p>\n<p>46789b9a-9f4f-45b5-a0a6-c293c3d5fcbb</p>\n<p>91960682-2715-4bab-81bb-96336a9d288e</p>\n<p>699d0003-1e3b-42d9-bb72-28912dcb75d1</p>\n<p>8a252b30-648d-4527-8bd9-c857da63fcb3</p>\n<p>c46bfc61-e254-44d3-953f-d9cf0e56a609</p>\n<p>100a16b5-2142-4134-bd9b-f4f66b43521a</p>\n</details>\n<!--- language code: en -->\n<div class=\"update-block\">\n          <div class=\"update-block-date\">2022-03-11T08:39:00.000Z</div>\n          <div class=\"update-block-content\">\n            <div class=\"update-block-title\">Update</div>\n            <div class=\"update-block-body\">\n<p>We are beginning with the migrations now.</p>\n</div></div></div>\n<div class=\"update-block\">\n          <div class=\"update-block-date\">2022-03-11T12:36:00.000Z</div>\n          <div class=\"update-block-content\">\n            <div class=\"update-block-title\">Update</div>\n            <div class=\"update-block-body\">\n<p>Due to technical issues, the migration of some instances will take longer.\nWe apologize for the inconvenience.</p>\n</div></div></div>\n<div class=\"update-block\">\n          <div class=\"update-block-date\">2022-03-11T18:25:00.000Z</div>\n          <div class=\"update-block-content\">\n            <div class=\"update-block-title\">Resolved</div>\n            <div class=\"update-block-body\">\n<p>Migrations have been completed.</p>\n</div></div></div>\n"},{"id":"537fb4cd","title":"compute27 maintenance","date":"2022-03-10T08:00:00.000Z","modified":"2022-03-10T13:35:00.000Z","scheduled":"2022-03-10T08:00:00.000Z","duration":300,"severity":"under-maintenance","affectedsystems":["cloud"],"resolved":true,"content":"<p>In order to further improve our product quality and guarantee the stability of our services, we regularly perform maintenance work on our systems.</p>\n<p>The maintenance work will take place on Thursday, 10.03.2022 at 09:00 (CET).</p>\n<p>During this time, cloud servers on compute27 will be temporarily unavailable. Cloud Servers that are already off will be migrated first. Afterwards we will shutdown any cloud server's that are still running via APCI (Software Shutdown).</p>\n<p>Thank you for your understanding\n</br>\n</br></p>\n<details>\n  <summary>Affected Instances</summary>\n  fa8d1b5f-7190-4ef2-a3c5-b5e9c86c80be\n<p>c8ac2b4e-10d1-4350-ab94-e09260b33cff</p>\n<p>86a7b8de-fd36-4f92-8556-c341a1316d2f</p>\n<p>7d6238b8-88fa-4391-b81e-493afe28262e</p>\n<p>d8a571ec-c190-4bc3-bfb1-c290d020eaaa</p>\n<p>d5a44a09-d456-40d5-847d-2b42e0bd45b9</p>\n<p>440eed0e-e49f-4bfb-8994-7966ce1d0500</p>\n<p>b9495a2f-b22e-4fac-82c1-517917c9031e</p>\n<p>0258ff05-4e7d-4678-99f7-c315138db4b2</p>\n<p>f5ce74d1-9439-4bdd-a264-6a081fc43b43</p>\n<p>1596ce12-d6a6-445b-bc2b-6ca3bcd773f4</p>\n<p>f74a4ca8-904d-4de8-9b24-ddb44879765d</p>\n<p>22520e2b-16e1-4c31-a3cb-c9b24c43a514</p>\n<p>4f6f75f3-e14d-4cba-a4d9-6e1625a4e67d</p>\n<p>78704190-5e3e-49cc-81b8-4cec65d69cc9</p>\n<p>bf95b872-d048-4eec-869d-6e2b092eb0aa</p>\n<p>67d56ef2-1799-41b5-ac2a-0612f7ee4931</p>\n<p>0794ad97-80de-4669-9cd1-e1e489755d0a</p>\n<p>63a3d91f-d7c9-4b73-b7f6-25e2da9b6927</p>\n<p>10bc587e-566c-4b79-9c5c-61b22105eda6</p>\n<p>f09037a7-86c8-44fd-b91c-eb018a13a314</p>\n<p>069efa15-7fec-4919-b21d-36370b70e854</p>\n<p>79abd52c-b576-4163-96e2-2b9e8ade17b1</p>\n<p>6ef15ff9-7543-4b93-a3eb-528448177834</p>\n<p>fab629b8-7548-4da1-bb7b-89cbafe4a98b</p>\n<p>4aee1f30-103c-4aa2-b6ab-65efb5b7fced</p>\n<p>66a1f7af-43a1-43d7-a4f7-daf9cfc337b5</p>\n<p>4bb709d9-9641-49c7-a304-d3a011cf9a14</p>\n<p>754da623-1631-414c-bd45-d8e97ceb88f9</p>\n<p>dbb5cf23-32de-4fe6-b92f-d3083bcea1f5</p>\n<p>6e6f5270-f130-45a9-91e5-affecaf63d79</p>\n<p>bcd9614a-1e94-40ae-91e3-76b8790f5601</p>\n<p>ad2fc65a-046f-4ff7-8f49-b335d80d81c7</p>\n<p>9be8f200-71fa-483e-bb8e-e89f53bed9ee</p>\n<p>3e9f23bb-5c11-4346-91d5-f2e8577b1b72</p>\n<p>0a51c70f-f72e-47e4-9a72-c204b65eec23</p>\n<p>14e78148-98ef-4933-ab34-e3d2aec9b7cc</p>\n<p>a34eb745-a23d-4501-bad7-a109117b4e93</p>\n<p>6a537554-d3ec-42a7-aa14-a534e690c285</p>\n<p>c60abf63-fca7-4453-bef6-b2aee94460a5</p>\n<p>9defe754-6092-450d-b526-380f57c8f3e0</p>\n</details>\n<!--- language code: en -->\n<div class=\"update-block\">\n          <div class=\"update-block-date\">2022-03-10T08:10:00.000Z</div>\n          <div class=\"update-block-content\">\n            <div class=\"update-block-title\">Update</div>\n            <div class=\"update-block-body\">\n<p>We are beginning with the migrations now.</p>\n</div></div></div>\n<div class=\"update-block\">\n          <div class=\"update-block-date\">2022-03-10T13:35:00.000Z</div>\n          <div class=\"update-block-content\">\n            <div class=\"update-block-title\">Resolved</div>\n            <div class=\"update-block-body\">\n<p>Migrations have been completed.</p>\n</div></div></div>\n"},{"id":"c44239b0","title":"compute27 maintenance","date":"2022-03-09T08:00:00.000Z","modified":"2022-03-09T11:47:00.000Z","scheduled":"2022-03-09T08:00:00.000Z","duration":300,"severity":"under-maintenance","affectedsystems":["cloud"],"resolved":true,"content":"<p>In order to further improve our product quality and guarantee the stability of our services, we regularly perform maintenance work on our systems.</p>\n<p>The maintenance work will take place on Wednesday, 09.03.2022 at 09:00 (CET).</p>\n<p>During this time, cloud servers on compute27 will be temporarily unavailable. Cloud Servers that are already off will be migrated first. Afterwards we will shutdown any cloud server's that are still running via APCI (Software Shutdown).</p>\n<p>Thank you for your understanding\n</br>\n</br></p>\n<details>\n  <summary>Affected Instances</summary>\n  3f767c66-cb61-4f86-ae35-5787388c6e32\n<p>2b416afe-ec94-49ff-9b66-f4691818db8c</p>\n<p>6b045c21-5582-402f-90cd-bfe059ea580d</p>\n<p>ad5291aa-8056-4fc2-acee-b91ff349cc1d</p>\n<p>6fd597d5-026e-45ab-80b0-a8582e0000db</p>\n<p>d0cd2f88-d4e2-4061-a6ab-5c6a55157107</p>\n</details>\n<!--- language code: en -->\n<div class=\"update-block\">\n          <div class=\"update-block-date\">2022-03-09T08:00:00.000Z</div>\n          <div class=\"update-block-content\">\n            <div class=\"update-block-title\">Update</div>\n            <div class=\"update-block-body\">\n<p>We are beginning with the migrations now.</p>\n</div></div></div>\n<div class=\"update-block\">\n          <div class=\"update-block-date\">2022-03-09T11:46:00.000Z</div>\n          <div class=\"update-block-content\">\n            <div class=\"update-block-title\">Resolved</div>\n            <div class=\"update-block-body\">\n<p>Migrations have been completed.</p>\n</div></div></div>\n"}]}