{"count":15,"page":5,"page_size":3,"total_pages":5,"periods":[{"id":"2021-5","incidents":[{"id":"39ae7295","title":"Some VPS offline","description":"We are receiving reports of some VPS being offline and are currently investigating the issue.\r\n\r\n","date":"2021-05-24T17:50:02.000Z","modified":"2021-05-24T17:50:02.000Z","scheduled":null,"severity":"partial-outage","affectedsystems":["cloud"],"resolved":true,"content":"<p>We are receiving reports of some VPS being offline and are currently investigating the issue.</p>\n<!--- language code: en -->\n<div class=\"update-block\">\n          <div class=\"update-block-date\">2021-05-24T17:50:02.000Z</div>\n          <div class=\"update-block-content\">\n            <div class=\"update-block-title\">Resolved</div>\n            <div class=\"update-block-body\">\n<p>Due to a distributed attack some VPS experienced degraded network stability. The network is stable again since 17:10 UTC.\nWe apologise for the inconvenience.</p>\n</div></div></div>\n"},{"id":"831882e0","title":"Billing System Maintenance","date":"2021-05-03T08:48:00.000Z","modified":"2021-05-03T08:48:00.000Z","scheduled":"2021-05-03T08:45:00.000Z","duration":15,"severity":"under-maintenance","affectedsystems":["billing"],"resolved":true,"content":"<p>We are performing maintenance on our billing system.</p>\n<!--- language code: en -->\n<div class=\"update-block\">\n          <div class=\"update-block-date\">2021-05-03T08:48:00.000Z</div>\n          <div class=\"update-block-content\">\n            <div class=\"update-block-title\">Resolved</div>\n            <div class=\"update-block-body\">\n<p>Maintenance is now complete..</p>\n</div></div></div>\n"}],"order":17,"count":2},{"id":"2021-4","incidents":[{"id":"5f225a1c","title":"Billing System Maintenance","date":"2021-04-26T11:57:44.649Z","modified":"2021-04-26T11:57:44.649Z","scheduled":"2021-04-26T11:45:00.000Z","duration":15,"severity":"under-maintenance","affectedsystems":["billing"],"resolved":true,"content":"<p>We are performing maintenance on our billing system.</p>\n<!--- language code: en -->\n<div class=\"update-block\">\n          <div class=\"update-block-date\">2021-04-26T11:57:44.649Z</div>\n          <div class=\"update-block-content\">\n            <div class=\"update-block-title\">Resolved</div>\n            <div class=\"update-block-body\">\n<p>Maintenance is now complete..</p>\n</div></div></div>\n"}],"order":18,"count":1},{"id":"2021-3","incidents":[{"id":"97456af8","title":"Upgrade of core router equipment","description":"Core Switches and Router are replaced with better hardware to increase throughput.","date":"2021-03-30T08:50:48.568Z","modified":"2021-03-30T08:50:48.568Z","scheduled":"2021-03-30T07:30:00.000Z","duration":120,"severity":"under-maintenance","affectedsystems":["billing","cloud","network"],"resolved":true,"content":"<p>We are replacing core switches and router hardware to increase throughput and scale the network.</p>\n<p>Expect short network outages or degraded stability of up to 5 minutes during the maintenance window.</p>\n<!--- language code: en -->\n<div class=\"update-block\">\n          <div class=\"update-block-date\">2021-03-30T07:33:30.119Z</div>\n          <div class=\"update-block-content\">\n            <div class=\"update-block-title\">Update</div>\n            <div class=\"update-block-body\">\n<p>We are beginning with the maintenance shortly. Expect interruptions of up to 5 minutes during the maintenance window.</p>\n</div></div></div>\n<div class=\"update-block\">\n          <div class=\"update-block-date\">2021-03-30T08:50:48.568Z</div>\n          <div class=\"update-block-content\">\n            <div class=\"update-block-title\">Resolved</div>\n            <div class=\"update-block-body\">\n<p>Maintenance is now complete. There was a single interruption of 30 seconds for IPv4 traffic and 5 minutes for IPv6 traffic.</p>\n</div></div></div>\n"},{"id":"051e3e3d","title":"Dedicated Server Relocation","description":"We are relocating dedicated server hardware of a few customers","date":"2021-03-29T17:14:14.215Z","modified":"2021-03-29T17:14:14.215Z","scheduled":"2021-03-29T16:00:00.000Z","duration":5,"severity":"under-maintenance","affectedsystems":["dedicated"],"resolved":true,"content":"<p>We are relocating dedicated server hardware of a few customers. Affected customers have been notified via email.</p>\n<!--- language code: en -->\n<div class=\"update-block\">\n          <div class=\"update-block-date\">2021-03-29T17:14:14.215Z</div>\n          <div class=\"update-block-content\">\n            <div class=\"update-block-title\">Resolved</div>\n            <div class=\"update-block-body\">\n<p>We have completed the maintenance. Affected customers were offline for less than 5 minutes.</p>\n</div></div></div>\n"}],"order":19,"count":2}]}