{"count":12,"page":3,"page_size":3,"total_pages":4,"periods":[{"id":"2021-11","incidents":[{"id":"e439dd0e","title":"Billing Panel Maintenance","date":"2021-11-11T08:13:40.650Z","modified":"2021-11-11T11:10:00.000Z","scheduled":"2021-11-11T09:00:00.000Z","duration":120,"severity":"under-maintenance","affectedsystems":["billing"],"resolved":true,"content":"<p>We are performing scheduled maintenance on 11th of November 2021 from 10:00 to 12:00 (CEST).\nDuring this time the billing panel will be unavailable.</p>\n<!--- language code: en -->\n<div class=\"update-block\">\n          <div class=\"update-block-date\">2021-11-11T11:10:00.000Z</div>\n          <div class=\"update-block-content\">\n            <div class=\"update-block-title\">Resolved</div>\n            <div class=\"update-block-body\">\n<p>The maintenance has been completed.</p>\n</div></div></div>\n"},{"id":"61c672ea","title":"network connectivity issues","description":"Due to a technical problem, the network connectivity of individual IP addresses is currently limited.\r\nWe are already working on a solution","date":"2021-11-03T08:24:09.000Z","modified":"2021-11-03T08:48:24.000Z","scheduled":null,"severity":"partial-outage","affectedsystems":["network"],"resolved":true,"content":"<p>Due to a technical problem, the network connectivity of individual IP addresses is currently limited.\nWe are already working on a solution</p>\n<div class=\"update-block\">\n          <div class=\"update-block-date\">2021-11-03T08:48:24.000Z</div>\n          <div class=\"update-block-content\">\n            <div class=\"update-block-title\">Resolved</div>\n            <div class=\"update-block-body\">\n<p>The reason for the network issue was a bug in one of our packet forwarding engines.\nThe malfunction has been repaired and the network is stable again.</p>\n</div></div></div>\n"}],"order":8,"count":2},{"id":"2021-7","incidents":[{"id":"f063c162","title":"Billing System Maintenance","date":"2021-07-27T13:00:00.000Z","modified":"2021-07-27T13:00:00.000Z","scheduled":"2021-07-27T10:00:00.000Z","duration":180,"severity":"under-maintenance","affectedsystems":["billing"],"resolved":true,"content":"<p>On 27.07.2021 we will perform maintenance work on our billing system from 12pm to 2pm (CEST).\nDuring this time, the Customer Center will be completely or partially unavailable.</p>\n<!--- language code: en -->\n<div class=\"update-block\">\n          <div class=\"update-block-date\">2021-07-27T12:00:00.000Z</div>\n          <div class=\"update-block-content\">\n            <div class=\"update-block-title\">Update</div>\n            <div class=\"update-block-body\">\n<p>The maintenance work is delayed by about 60min.\nSorry for the inconvenience</p>\n</div></div></div>\n<div class=\"update-block\">\n          <div class=\"update-block-date\">2021-07-27T13:00:00.000Z</div>\n          <div class=\"update-block-content\">\n            <div class=\"update-block-title\">Resolved</div>\n            <div class=\"update-block-body\">\n<p>The maintenance has been completed.</p>\n</div></div></div>\n"},{"id":"b8790ca2","title":"Maintenance on tshost.myvirtualserver.com","date":"2021-07-27T08:20:39.662Z","modified":"2021-07-27T08:20:39.662Z","scheduled":"2021-07-27T08:00:00.000Z","duration":20,"severity":"under-maintenance","affectedsystems":["teamspeak"],"resolved":true,"content":"<p>The maintenance work will take place on Tuesday the 27.07.2021 at 10 A.M. (CEST) and will probably last 20 minutes, during this time the whole teamspeak host will be unavailable.\nThis maintenance work is necessary to further improve the quality of our products.</p>\n<p>We apologize for any inconvenience this may cause.</p>\n<!--- language code: en -->\n<div class=\"update-block\">\n          <div class=\"update-block-date\">2021-07-27T08:20:39.662Z</div>\n          <div class=\"update-block-content\">\n            <div class=\"update-block-title\">Resolved</div>\n            <div class=\"update-block-body\">\n<p>The maintenance has been completed.</p>\n</div></div></div>\n"},{"id":"9a0a3eb0","title":"Maintenance on web01.vnetso.com","date":"2021-07-24T23:35:00.000Z","modified":"2021-07-24T23:35:00.000Z","scheduled":"2021-07-24T21:00:00.000Z","duration":120,"severity":"under-maintenance","affectedsystems":["webhost"],"resolved":true,"content":"<p>The maintenance work will take place on Saturday the 24.07.2021 at 11 P.M. (CEST) and will probably last 120 minutes, during this time the whole webspace including (depending on your configuration) website and mail will be unavailable.\nThis maintenance work is necessary to further improve the quality of our products.</p>\n<p>We apologize for any inconvenience this may cause.</p>\n<!--- language code: en -->\n<div class=\"update-block\">\n          <div class=\"update-block-date\">2021-07-24T23:35:00.000Z</div>\n          <div class=\"update-block-content\">\n            <div class=\"update-block-title\">Resolved</div>\n            <div class=\"update-block-body\">\n<p>The maintenance has been completed.</p>\n</div></div></div>\n"}],"order":12,"count":3},{"id":"2021-6","incidents":[{"id":"f37dacd2","title":"Billing system and Teamspeak Host malfunction","description":"Currently our billing system and the Teamspeak host are not available due to a technical error. \r\nOur specialists are already working on a solution.","date":"2021-06-10T10:39:23.000Z","modified":"2021-06-10T10:39:31.000Z","scheduled":null,"severity":"partial-outage","affectedsystems":["billing"],"resolved":true,"content":"<p>Currently our billing system and the Teamspeak host are not available due to a technical error.\nOur specialists are already working on a solution.</p>\n<!--- language code: en -->\n<div class=\"update-block\">\n          <div class=\"update-block-date\">2021-06-10T10:39:23.000Z</div>\n          <div class=\"update-block-content\">\n            <div class=\"update-block-title\">Resolved</div>\n            <div class=\"update-block-body\">\n<p>Due to a software error on a node, the billing system, web01 and the Teamspeak host were not accessible.\nThe problem has been fixed since 10:40 UTC.\nWe apologize for the inconvenience.</p>\n</div></div></div>\n"}],"order":13,"count":1}]}