{"count":14,"page":1,"page_size":3,"total_pages":5,"periods":[{"id":"2022-8","incidents":[{"id":"7fd61752","title":"Compute1 Cloud Maintenance","date":"2022-08-08T08:00:00.000Z","modified":"2022-08-08T08:40:00.000Z","scheduled":"2022-08-08T08:00:00.000Z","duration":30,"severity":"under-maintenance","affectedsystems":["cloud"],"resolved":false,"content":"<p>In order to further improve our product quality and guarantee the stability of our services, we will perform maintenance on our cloud servers.</p>\n<p>The maintenance work will take place on Monday, 08th of August 2022 at 10:00 (CEST) and will end at approximately 10:30 (CEST), although we will try to\nkeep the interruption as minimal as possible.</p>\n<p>During this time, cloud servers may be temporarily unavailable and will be shutdown via APCI (Software Shutdown).</p>\n<p>Thank you for your understanding.</p>\n<!--- language code: en -->\n<div class=\"update-block\">\n          <div class=\"update-block-date\">2022-08-08T08:00:00.000Z</div>\n          <div class=\"update-block-content\">\n            <div class=\"update-block-title\">Update</div>\n            <div class=\"update-block-body\">\n<p>We are beginning with the maintenance now. Instances might be unavailable during this time.</p>\n</div></div></div>\n<div class=\"update-block\">\n          <div class=\"update-block-date\">2022-08-08T08:40:00.000Z</div>\n          <div class=\"update-block-content\">\n            <div class=\"update-block-title\">Update</div>\n            <div class=\"update-block-body\">\n<p>We are currently having issues with the control plane and are unable to start the VMs.\nThe issue is currently being investigated, however we are unable to give an exact timeframe when the services will recover.\nThis page will be updated as soon as we have more information.</p>\n</div></div></div>\n<div class=\"update-block\">\n          <div class=\"update-block-date\">2022-08-08T12:05:00.000Z</div>\n          <div class=\"update-block-content\">\n            <div class=\"update-block-title\">Restoring Services</div>\n            <div class=\"update-block-body\">\n<p>Some Control plane services have been restored to allow VMs to be started. Instances should now be reachable and start/stop via the web panel should be possible.\nWe are still working on restoring other services, such as volume/image management.\nThis page will be updated as soon as more information becomes available.</p>\n</div></div></div>\n"}],"order":1,"count":1},{"id":"2022-7","incidents":[{"id":"f6815e50","title":"Compute1 Cloud Maintenance","date":"2022-07-15T08:00:00.000Z","modified":"2022-07-15T08:45:00.000Z","scheduled":"2022-07-15T08:00:00.000Z","duration":30,"severity":"under-maintenance","affectedsystems":["cloud"],"resolved":true,"content":"<p>In order to further improve our product quality and guarantee the stability of our services, we will perform maintenance on our cloud servers.</p>\n<p>The maintenance work will take place on Friday, 15th of July 2022 at 10:00 (CEST) and will end at approximately 10:30 (CEST), although we will try to\nkeep the interruption as minimal as possible.</p>\n<p>During this time, cloud servers may be temporarily unavailable and will be shutdown via APCI (Software Shutdown).</p>\n<p>Thank you for your understanding.</p>\n<!--- language code: en -->\n<div class=\"update-block\">\n          <div class=\"update-block-date\">2022-07-15T08:00:00.000Z</div>\n          <div class=\"update-block-content\">\n            <div class=\"update-block-title\">Update</div>\n            <div class=\"update-block-body\">\n<p>We are beginning with the maintenance now. Instances might be unavailable during this time.</p>\n</div></div></div>\n<div class=\"update-block\">\n          <div class=\"update-block-date\">2022-07-15T08:35:00.000Z</div>\n          <div class=\"update-block-content\">\n            <div class=\"update-block-title\">Update</div>\n            <div class=\"update-block-body\">\n<p>Instances are currently booting and we are monitoring the process.</p>\n</div></div></div>\n<div class=\"update-block\">\n          <div class=\"update-block-date\">2022-07-15T08:45:00.000Z</div>\n          <div class=\"update-block-content\">\n            <div class=\"update-block-title\">Completed</div>\n            <div class=\"update-block-body\">\n<p>All instances are back online. Maintenance is now complete.</p>\n</div></div></div>\n"}],"order":2,"count":1},{"id":"2022-6","incidents":[{"id":"638b5480","title":"power failure at Düsseldorf site","description":"We currently have a power outage at the Düsseldorf site \r\n\r\nWe are already working on a solution\r\n","date":"2022-06-22T14:19:00.000Z","modified":"2022-06-22T17:00:00.000Z","scheduled":null,"severity":"partial-outage","affectedsystems":["cloud"],"resolved":true,"content":"<p>Currently, the entire city power network in Düsseldorf is disrupted.\nThe USV systems of the data centers have taken over the power supply.</p>\n<div class=\"update-block\">\n          <div class=\"update-block-date\">2022-06-22T15:12:00.000Z</div>\n          <div class=\"update-block-content\">\n            <div class=\"update-block-title\">Update</div>\n            <div class=\"update-block-body\">\n<p>Due to the power outage, some air conditioners have failed, causing server heat issues and shutdowns.\nWe are currently in direct contact with the datacenter to solve the problem as quickly as possible.</p>\n</div></div></div>\n<div class=\"update-block\">\n          <div class=\"update-block-date\">2022-06-22T16:35:00.000Z</div>\n          <div class=\"update-block-content\">\n            <div class=\"update-block-title\">Update</div>\n            <div class=\"update-block-body\">\n<p>The air conditioning units have now been brought back up and the temperature in the cold aisle has returned to normal.\nWe are now starting to ramp up the systems that were shut down due to the high temperature.</p>\n</div></div></div>\n<div class=\"update-block\">\n          <div class=\"update-block-date\">2022-06-22T16:50:00.000Z</div>\n          <div class=\"update-block-content\">\n            <div class=\"update-block-title\">Update</div>\n            <div class=\"update-block-body\">\n<p>All systems are back up and all services are stabilizing again.</p>\n</div></div></div>\n<div class=\"update-block\">\n          <div class=\"update-block-date\">2022-06-22T17:00:00.000Z</div>\n          <div class=\"update-block-content\">\n            <div class=\"update-block-title\">Resolved</div>\n            <div class=\"update-block-body\">\n<p>The problem has been resolved. All services are up and running in normal operation mode.</p>\n<p>We apologies to our customers impacted by the consequences of the power failure.</p>\n</div></div></div>\n"},{"id":"dfd908ac","title":"network connectivity issues","description":"Due to a well-distributed DoS attack towards multiple prefixes we currently experience network stability issues for DDoS protected traffic currently routed via our external DDoS mitigation service provider. We are already working on a solution. \r\n\r\nWe are already working on a solution\r\n","date":"2022-06-09T20:10:00.000Z","modified":"2022-06-09T21:52:00.000Z","scheduled":null,"severity":"partial-outage","affectedsystems":["network"],"resolved":true,"content":"<p>Due to a well-distributed DoS attack towards multiple prefixes we currently experience network stability issues for DDoS protected traffic currently routed via our external DDoS mitigation service provider.\nWe are already working on a solution.</p>\n<div class=\"update-block\">\n          <div class=\"update-block-date\">2022-06-09T20:15:00.000Z</div>\n          <div class=\"update-block-content\">\n            <div class=\"update-block-title\">Update</div>\n            <div class=\"update-block-body\">\n<p>The permanent DDoS protection / filter rules of our external DDoS mitigation service provider has been established for a wide amount of prefixes in order to establish regular network operation again. But we still do experience some issues for some prefixes. We are currently in direct contact with the external DDoS mitigation service provider to solve the problem as quickly as possible.</p>\n</div></div></div>\n<div class=\"update-block\">\n          <div class=\"update-block-date\">2022-06-09T21:52:00.000Z</div>\n          <div class=\"update-block-content\">\n            <div class=\"update-block-title\">Resolved</div>\n            <div class=\"update-block-body\">\n<p>The problem has been resolved. All services are up and running in normal operation mode. We are still in direct contact with our external DDoS mitigation service provide in order to improve the quality of the service for the future.</p>\n<p>We apologies to our customers impacted by the consequences of the DDoS attack.</p>\n</div></div></div>\n"}],"order":3,"count":2}]}